[gd_scene load_steps=3 format=2]

[ext_resource path="res://assets/visual/livro_receitas.png" type="Texture" id=1]
[ext_resource path="res://hud/book/BookButton.gd" type="Script" id=2]

[node name="BookButton" type="TextureButton"]
light_mask = 0
margin_left = 310.699
margin_top = -230.263
margin_right = 608.699
margin_bottom = -55.2629
mouse_filter = 1
texture_normal = ExtResource( 1 )
script = ExtResource( 2 )
[connection signal="pressed" from="." to="." method="_on_BookButton_pressed"]
