[gd_scene load_steps=2 format=2]

[ext_resource path="res://assets/visual/icon_leafBlue.png" type="Texture" id=1]

[node name="RecipeItem" type="TextureRect"]
margin_right = 35.0
margin_bottom = 45.0
rect_min_size = Vector2( 35, 55 )
texture = ExtResource( 1 )
expand = true
stretch_mode = 6
